%YAML 1.1
%TAG !u! tag:unity3d.com,2011:
--- !u!1 &8779141912819021363
GameObject:
  m_ObjectHideFlags: 0
  m_CorrespondingSourceObject: {fileID: 0}
  m_PrefabInstance: {fileID: 0}
  m_PrefabAsset: {fileID: 0}
  serializedVersion: 6
  m_Component:
  - component: {fileID: 8779141912819021360}
  - component: {fileID: 8779141912819021361}
  - component: {fileID: 8779141912819021362}
  m_Layer: 0
  m_Name: wc03
  m_TagString: Untagged
  m_Icon: {fileID: 0}
  m_NavMeshLayer: 0
  m_StaticEditorFlags: 0
  m_IsActive: 1
--- !u!4 &8779141912819021360
Transform:
  m_ObjectHideFlags: 0
  m_CorrespondingSourceObject: {fileID: 0}
  m_PrefabInstance: {fileID: 0}
  m_PrefabAsset: {fileID: 0}
  m_GameObject: {fileID: 8779141912819021363}
  m_LocalRotation: {x: -0, y: 1, z: -0, w: 0}
  m_LocalPosition: {x: 0.483, y: -0.021, z: 14.515137}
  m_LocalScale: {x: 1, y: 1, z: 1}
  m_Children: []
  m_Father: {fileID: 0}
  m_RootOrder: 0
  m_LocalEulerAnglesHint: {x: 0, y: 180, z: 0}
--- !u!212 &8779141912819021361
SpriteRenderer:
  m_ObjectHideFlags: 0
  m_CorrespondingSourceObject: {fileID: 0}
  m_PrefabInstance: {fileID: 0}
  m_PrefabAsset: {fileID: 0}
  m_GameObject: {fileID: 8779141912819021363}
  m_Enabled: 1
  m_CastShadows: 0
  m_ReceiveShadows: 0
  m_DynamicOccludee: 1
  m_MotionVectors: 1
  m_LightProbeUsage: 1
  m_ReflectionProbeUsage: 1
  m_RenderingLayerMask: 1
  m_RendererPriority: 0
  m_Materials:
  - {fileID: 10754, guid: 0000000000000000f000000000000000, type: 0}
  m_StaticBatchInfo:
    firstSubMesh: 0
    subMeshCount: 0
  m_StaticBatchRoot: {fileID: 0}
  m_ProbeAnchor: {fileID: 0}
  m_LightProbeVolumeOverride: {fileID: 0}
  m_ScaleInLightmap: 1
  m_ReceiveGI: 1
  m_PreserveUVs: 0
  m_IgnoreNormalsForChartDetection: 0
  m_ImportantGI: 0
  m_StitchLightmapSeams: 1
  m_SelectedEditorRenderState: 0
  m_MinimumChartSize: 4
  m_AutoUVMaxDistance: 0.5
  m_AutoUVMaxAngle: 89
  m_LightmapParameters: {fileID: 0}
  m_SortingLayerID: 0
  m_SortingLayer: 0
  m_SortingOrder: 1
  m_Sprite: {fileID: 21300000, guid: b3caaebda212db0488f25dcdec0a7557, type: 3}
  m_Color: {r: 1, g: 1, b: 1, a: 1}
  m_FlipX: 0
  m_FlipY: 0
  m_DrawMode: 0
  m_Size: {x: 2.56, y: 2.56}
  m_AdaptiveModeThreshold: 0.5
  m_SpriteTileMode: 0
  m_WasSpriteAssigned: 1
  m_MaskInteraction: 0
  m_SpriteSortPoint: 0
--- !u!60 &8779141912819021362
PolygonCollider2D:
  m_ObjectHideFlags: 0
  m_CorrespondingSourceObject: {fileID: 0}
  m_PrefabInstance: {fileID: 0}
  m_PrefabAsset: {fileID: 0}
  m_GameObject: {fileID: 8779141912819021363}
  m_Enabled: 1
  m_Density: 1
  m_Material: {fileID: 0}
  m_IsTrigger: 0
  m_UsedByEffector: 0
  m_UsedByComposite: 0
  m_Offset: {x: 0, y: 0}
  m_SpriteTilingProperty:
    border: {x: 0, y: 0, z: 0, w: 0}
    pivot: {x: 0.5, y: 0.5}
    oldSize: {x: 0.85333335, y: 0.85333335}
    newSize: {x: 2.56, y: 2.56}
    adaptiveTilingThreshold: 0.5
    drawMode: 0
    adaptiveTiling: 0
  m_AutoTiling: 0
  m_Points:
    m_Paths:
    - - {x: 0.05666667, y: -0.17666668}
      - {x: 0.06333333, y: -0.17666668}
      - {x: 0.083333336, y: -0.15666667}
      - {x: 0.11, y: -0.14333333}
      - {x: 0.11, y: -0.06666667}
      - {x: 0.17, y: -0.07}
      - {x: 0.19666667, y: -0.05666667}
      - {x: 0.22, y: -0.04}
      - {x: 0.22666667, y: -0.033333335}
      - {x: 0.22666667, y: 0.23333333}
      - {x: 0.22333334, y: 0.24000001}
      - {x: 0.01, y: 0.34666666}
      - {x: -0.026666667, y: 0.34666666}
      - {x: -0.05, y: 0.33666667}
      - {x: -0.07666667, y: 0.32333335}
      - {x: -0.09666667, y: 0.30333334}
      - {x: -0.093333334, y: 0.04}
      - {x: -0.10333334, y: 0.043333333}
      - {x: -0.15666667, y: 0.016666668}
      - {x: -0.18333334, y: 0}
      - {x: -0.21000001, y: -0.023333333}
      - {x: -0.22666667, y: -0.060000002}
      - {x: -0.22666667, y: -0.11666667}
      - {x: -0.21666667, y: -0.123333335}
      - {x: -0.21333334, y: -0.16666667}
      - {x: -0.20333333, y: -0.18333334}
      - {x: -0.19, y: -0.19666667}
      - {x: -0.15333334, y: -0.21333334}
      - {x: -0.13333334, y: -0.21333334}
      - {x: -0.13333334, y: -0.31333333}
      - {x: -0.11, y: -0.34666666}
      - {x: -0.023333333, y: -0.34666666}
      - {x: -0.0033333334, y: -0.33666667}
      - {x: 0.03666667, y: -0.31}
      - {x: 0.053333335, y: -0.29666668}
